(1, 2): 3.368019
(1, 4): 3.273867
(1, 5): 3.520810
(2, 1): 3.801641
(2, 2): 1.470718
(2, 5): 1.617407
(2, 6): 3.682707
(3, 3): 3.000000
(4, 1): 1.427329
(4, 4): 3.505003
(4, 6): 1.000000
(5, 1): 2.586407
(5, 2): 4.539852
(6, 2): 1.381622
(6, 3): 4.185838
(6, 4): 1.634879
(6, 6): 4.462195
(7, 1): 2.397409
(7, 4): 2.857166
(7, 5): 3.167808
(7, 6): 2.245974
(8, 1): 1.851412
(8, 2): 3.604312
(8, 3): 1.447976
(8, 5): 3.679958
(9, 2): 0.746669
(9, 4): 0.858968
(9, 5): 0.479190
(9, 6): 4.536889
(10, 1): 3.000000
(10, 4): 2.000000
(10, 5): 2.000000
(10, 6): 3.000000
(12, 1): 0.732482
(12, 3): 1.298540
(12, 4): 3.989994
(12, 6): 1.173297
