userId,movieId,rating,timestamp
1,1,1,11235
1,3,2,11235
1,6,1,11235
2,3,4,11235
2,4,2,11235
3,1,3,11235
3,2,5,11235
3,4,4,11235
3,5,4,11235
3,6,3,11235
4,2,4,11235
4,3,1,11235
4,5,3,11235
5,3,2,11235
5,4,5,11235
5,5,4,11235
5,6,3,11235
6,1,5,11235
6,5,2,11235
7,2,4,11235
7,3,3,11235
8,4,4,11235
8,6,2,11235
9,1,5,11235
9,3,4,11235
10,2,2,11235
10,3,3,11235
11,1,4,11235
11,2,1,11235
11,3,5,11235
11,4,2,11235
11,5,2,11235
11,6,4,11235
12,2,3,11235
12,5,5,11235
